MSTRG.52465.1.p1	CN
MSTRG.8144.6.p1	CN
MSTRG.2053.3.p2	CN
MSTRG.8166.2.p1	CN
MSTRG.8149.2.p1	CN
MSTRG.46411.1.p2	CN
MSTRG.19744.1.p1	CN
MSTRG.2053.2.p2	CN
MSTRG.37536.1.p2	CN
MSTRG.8162.9.p3	CN
MSTRG.46412.1.p1	CN
MSTRG.1941.1.p1	CN
MSTRG.1908.1.p1	CN
MSTRG.2053.5.p2	CN
MSTRG.2053.1.p2	CN
MSTRG.8144.3.p1	CN
MSTRG.54230.1.p1	CN
MSTRG.8149.3.p1	CN
MSTRG.8144.8.p1	CNL
MSTRG.53935.1.p1	CNL
MSTRG.8144.1.p1	CNL
MSTRG.8147.1.p1	CNL
MSTRG.53517.2.p1	CNL
MSTRG.5642.14.p1	CNL
MSTRG.1664.1.p1	CNL
MSTRG.1933.1.p1	CNL
MSTRG.8149.1.p1	CNL
MSTRG.8144.5.p1	CNL
MSTRG.37525.1.p1	CNL
MSTRG.32768.1.p1	CNL
MSTRG.22390.1.p1	CNL
MSTRG.3373.2.p1	CNL
MSTRG.31819.2.p1	CNL
MSTRG.8147.2.p1	CNL
MSTRG.17185.1.p1	CNL
MSTRG.4878.1.p1	CNL
MSTRG.13750.4.p1	CNL
MSTRG.8144.2.p1	CNL
MSTRG.22966.1.p1	CNL
MSTRG.8166.1.p1	CNL
MSTRG.8144.4.p1	CNL
MSTRG.3373.1.p1	CNL
MSTRG.37094.1.p1	CNL
MSTRG.8144.9.p1	CNL
MSTRG.21118.1.p1	CNL
MSTRG.13750.1.p1	CNL
MSTRG.3373.3.p1	CNL
MSTRG.23046.1.p1	CNL
MSTRG.45583.1.p1	CNL
MSTRG.21422.1.p1	CNL
MSTRG.2053.4.p1	CNL
MSTRG.31034.1.p1	CNL
MSTRG.8144.7.p1	CNL
MSTRG.53935.2.p1	CNL
MSTRG.53517.1.p1	CNL
MSTRG.18503.1.p1	CNL
MSTRG.37094.2.p1	CNL
MSTRG.54356.1.p1	CNL
MSTRG.13750.2.p1	CNL
MSTRG.2048.1.p1	CNL
MSTRG.23052.1.p1	CNL
MSTRG.21123.1.p1	CNL
MSTRG.17185.2.p1	CNL
MSTRG.37526.1.p1	CNL
MSTRG.46169.1.p1	CNL
MSTRG.4345.32.p1	NBS
MSTRG.4063.1.p1	NBS
MSTRG.23307.1.p1	NBS
MSTRG.4345.21.p1	NBS
MSTRG.8162.9.p4	NBS
MSTRG.1397.1.p1	NBS
MSTRG.5319.1.p1	NBS
MSTRG.43307.2.p2	NBS
MSTRG.48149.1.p2	NBS
MSTRG.8162.11.p1	NBS
MSTRG.4331.2.p1	NBS
MSTRG.8162.5.p2	NBS
MSTRG.53503.1.p1	NBS
MSTRG.21986.1.p1	NBS
MSTRG.40323.2.p1	NBS
MSTRG.53341.4.p4	NBS
MSTRG.3792.2.p2	NBS
MSTRG.807.3.p1	NBS
MSTRG.40324.1.p1	NBS
MSTRG.37036.1.p1	NBS
MSTRG.50482.4.p1	NBS
MSTRG.4345.19.p1	NBS
MSTRG.22194.1.p2	NBS
MSTRG.46785.2.p1	NBS
MSTRG.5487.2.p2	NBS
MSTRG.37183.2.p2	NBS
MSTRG.53362.2.p1	NBS
MSTRG.8162.13.p1	NBS
MSTRG.4345.24.p1	NBS
MSTRG.4276.1.p1	NBS
MSTRG.4331.4.p1	NBS
MSTRG.3993.2.p1	NBS
MSTRG.21714.1.p1	NBS
MSTRG.37102.3.p1	NBS
MSTRG.5039.1.p1	NBS
MSTRG.20362.1.p1	NBS
MSTRG.8162.6.p1	NBS
MSTRG.33130.5.p1	NBS
MSTRG.21518.8.p2	NBS
MSTRG.5642.5.p2	NBS
MSTRG.8162.14.p1	NBS
MSTRG.3996.1.p1	NBS
MSTRG.16.2.p1	NBS
MSTRG.4345.23.p1	NBS
MSTRG.5034.1.p1	NBS
MSTRG.53952.1.p1	NBS
MSTRG.46490.1.p1	NBS
MSTRG.5318.1.p1	NBS
MSTRG.47553.1.p1	NBS
MSTRG.289.2.p1	NBS
MSTRG.4219.1.p1	NBS
MSTRG.27562.1.p1	NBS
MSTRG.5034.6.p1	NBS
MSTRG.36315.7.p1	NBS
MSTRG.4085.3.p2	NBS
MSTRG.4345.36.p1	NBS
MSTRG.5426.2.p2	NBS
MSTRG.75.3.p1	NBS
MSTRG.5413.1.p1	NBS
MSTRG.17909.2.p1	NBS
MSTRG.4988.1.p1	NBS
MSTRG.4280.1.p1	NBS
MSTRG.4576.1.p2	NBS
MSTRG.4331.1.p1	NBS
MSTRG.4094.1.p1	NBS
MSTRG.21754.9.p1	NBS
MSTRG.45983.1.p1	NBS
MSTRG.20414.5.p1	NBS
MSTRG.8162.19.p1	NBS
MSTRG.19746.1.p1	NBS
MSTRG.36324.6.p1	NBS
MSTRG.28183.1.p1	NBS
MSTRG.4266.2.p1	NBS
MSTRG.27751.1.p1	NBS
MSTRG.20414.4.p1	NBS
MSTRG.33321.1.p1	NBS
MSTRG.5034.4.p1	NBS
MSTRG.36629.1.p1	NBS
MSTRG.21777.2.p1	NBS
MSTRG.23140.1.p1	NBS
MSTRG.7554.1.p1	NBS
MSTRG.26790.1.p1	NBS
MSTRG.5249.1.p1	NBS
MSTRG.5171.1.p1	NBS
MSTRG.19038.1.p1	NBS
MSTRG.5642.7.p3	NBS
MSTRG.4987.1.p1	NBS
MSTRG.941.1.p1	NBS
MSTRG.4345.38.p1	NBS
MSTRG.13197.1.p1	NBS
MSTRG.5168.1.p1	NBS
MSTRG.23140.3.p1	NBS
MSTRG.21754.10.p1	NBS
MSTRG.12557.1.p4	NBS
MSTRG.1722.1.p1	NBS
MSTRG.20886.1.p1	NBS
MSTRG.36733.2.p2	NBS
MSTRG.20414.1.p1	NBS
MSTRG.5487.1.p2	NBS
MSTRG.21789.1.p1	NBS
MSTRG.31295.1.p2	NBS
MSTRG.48037.1.p1	NBS
MSTRG.20411.1.p1	NBS
MSTRG.8162.2.p1	NBS
MSTRG.5036.2.p1	NBS
MSTRG.8162.7.p1	NBS
MSTRG.4345.33.p1	NBS
MSTRG.29110.1.p1	NBS
MSTRG.18042.1.p1	NBS
MSTRG.4077.1.p1	NBS
MSTRG.4061.1.p2	NBS
MSTRG.4345.18.p1	NBS
MSTRG.4345.37.p1	NBS
MSTRG.22057.1.p1	NBS
MSTRG.3929.2.p1	NBS
MSTRG.5195.1.p1	NBS
MSTRG.21424.1.p3	NBS
MSTRG.53489.1.p1	NBS
MSTRG.53362.1.p1	NBS
MSTRG.22390.2.p1	NBS
MSTRG.31818.2.p1	NBS
MSTRG.16.1.p1	NBS
MSTRG.54682.2.p1	NBS
MSTRG.21424.2.p1	NBS
MSTRG.46785.5.p1	NBS
MSTRG.40911.3.p2	NBS
MSTRG.20362.2.p1	NBS
MSTRG.3891.1.p1	NBS
MSTRG.47225.4.p2	NBS
MSTRG.21979.1.p1	NBS
MSTRG.8162.12.p1	NBS
MSTRG.17558.2.p1	NBS
MSTRG.44733.3.p1	NBS
MSTRG.47549.1.p2	NBS
MSTRG.37183.3.p2	NBS
MSTRG.36770.1.p1	NBS
MSTRG.4331.3.p1	NBS
MSTRG.29328.1.p2	NBS
MSTRG.3903.3.p1	NBS
MSTRG.1059.1.p1	NBS
MSTRG.16741.1.p1	NBS
MSTRG.4345.16.p1	NBS
MSTRG.19000.1.p1	NBS
MSTRG.46785.1.p1	NBS
MSTRG.40424.2.p1	NBS
MSTRG.5064.1.p1	NBS
MSTRG.4447.1.p1	NBS
MSTRG.4345.31.p1	NBS
MSTRG.5642.9.p3	NBS
MSTRG.36315.2.p1	NBS
MSTRG.4345.22.p1	NBS
MSTRG.11537.1.p1	NBS
MSTRG.43307.1.p2	NBS
MSTRG.8192.2.p2	NBS
MSTRG.5738.1.p1	NBS
MSTRG.4753.1.p2	NBS
MSTRG.39247.4.p1	NBS
MSTRG.21873.1.p1	NBS
MSTRG.5081.1.p1	NBS
MSTRG.29080.1.p2	NBS
MSTRG.4269.1.p5	NBS
MSTRG.36733.1.p2	NBS
MSTRG.5642.8.p3	NBS
MSTRG.5411.1.p2	NBS
MSTRG.5642.6.p3	NBS
MSTRG.40354.4.p2	NBS
MSTRG.1683.1.p1	NBS
MSTRG.21518.5.p2	NBS
MSTRG.48147.1.p1	NBS
MSTRG.4536.1.p1	NBS
MSTRG.20411.2.p1	NBS
MSTRG.48146.1.p1	NBS
MSTRG.40354.5.p2	NBS
MSTRG.19038.2.p1	NBS
MSTRG.29327.1.p2	NBS
MSTRG.807.4.p2	NBS
MSTRG.3929.1.p1	NBS
MSTRG.5034.3.p1	NBS
MSTRG.22269.1.p1	NBS
MSTRG.5036.1.p1	NBS
MSTRG.45546.1.p1	NBS
MSTRG.4418.1.p1	NBS
MSTRG.807.1.p2	NBS
MSTRG.29159.1.p1	NBS
MSTRG.36315.8.p1	NBS
MSTRG.836.1.p1	NBS
MSTRG.4715.1.p1	NBS
MSTRG.1839.1.p1	NBS
MSTRG.8162.16.p1	NBS
MSTRG.1935.2.p2	NBS
MSTRG.49756.2.p1	NBS
MSTRG.40011.1.p1	NBS
MSTRG.50171.1.p1	NBS
MSTRG.36296.4.p2	NBS
MSTRG.26790.2.p1	NBS
MSTRG.44663.1.p1	NBS
MSTRG.32808.2.p1	NBS
MSTRG.47225.5.p1	NBS
MSTRG.53788.1.p1	NBS
MSTRG.21518.1.p2	NBS
MSTRG.49004.1.p2	NBS
MSTRG.17909.1.p1	NBS
MSTRG.36733.3.p2	NBS
MSTRG.47225.3.p1	NBS
MSTRG.8162.5.p3	NBS
MSTRG.36296.3.p2	NBS
MSTRG.3965.3.p1	NBS
MSTRG.50368.1.p1	NBS
MSTRG.21928.1.p1	NBS
MSTRG.36763.1.p1	NBS
MSTRG.21754.6.p1	NBS
MSTRG.5425.1.p1	NBS
MSTRG.42174.2.p1	NL
MSTRG.4636.2.p1	NL
MSTRG.43304.1.p1	NL
MSTRG.36769.3.p1	NL
MSTRG.36315.1.p1	NL
MSTRG.5066.2.p1	NL
MSTRG.43078.3.p1	NL
MSTRG.45722.1.p1	NL
MSTRG.36296.2.p1	NL
MSTRG.30628.1.p1	NL
MSTRG.3951.1.p1	NL
MSTRG.39609.1.p1	NL
MSTRG.36324.2.p1	NL
MSTRG.37102.1.p1	NL
MSTRG.2053.3.p1	NL
MSTRG.26812.2.p1	NL
MSTRG.41281.1.p1	NL
MSTRG.36770.2.p1	NL
MSTRG.36322.1.p1	NL
MSTRG.3813.1.p1	NL
MSTRG.40202.2.p1	NL
MSTRG.53476.1.p1	NL
MSTRG.3903.2.p1	NL
MSTRG.47226.1.p1	NL
MSTRG.22023.10.p1	NL
MSTRG.29080.1.p3	NL
MSTRG.45452.1.p1	NL
MSTRG.1376.1.p1	NL
MSTRG.28165.1.p1	NL
MSTRG.44733.2.p1	NL
MSTRG.8162.8.p1	NL
MSTRG.46443.2.p1	NL
MSTRG.46411.1.p1	NL
MSTRG.53821.2.p1	NL
MSTRG.1398.1.p1	NL
MSTRG.3926.1.p1	NL
MSTRG.36315.4.p1	NL
MSTRG.33130.3.p1	NL
MSTRG.8162.1.p1	NL
MSTRG.8162.17.p1	NL
MSTRG.8162.15.p1	NL
MSTRG.18018.1.p3	NL
MSTRG.30904.1.p1	NL
MSTRG.8148.1.p1	NL
MSTRG.50571.3.p1	NL
MSTRG.4658.1.p1	NL
MSTRG.13749.1.p1	NL
MSTRG.4318.1.p1	NL
MSTRG.30738.1.p1	NL
MSTRG.31014.1.p1	NL
MSTRG.22068.1.p1	NL
MSTRG.43676.2.p1	NL
MSTRG.33130.4.p1	NL
MSTRG.28478.1.p1	NL
MSTRG.36769.1.p1	NL
MSTRG.36315.3.p1	NL
MSTRG.13737.1.p1	NL
MSTRG.289.3.p1	NL
MSTRG.4640.2.p1	NL
MSTRG.5487.4.p1	NL
MSTRG.43078.1.p1	NL
MSTRG.36315.5.p1	NL
MSTRG.22023.9.p1	NL
MSTRG.1975.1.p1	NL
MSTRG.4539.1.p1	NL
MSTRG.22411.1.p1	NL
MSTRG.30628.3.p1	NL
MSTRG.36326.3.p1	NL
MSTRG.4636.5.p1	NL
MSTRG.8162.10.p1	NL
MSTRG.33512.2.p1	NL
MSTRG.36315.9.p1	NL
MSTRG.3903.1.p1	NL
MSTRG.4979.4.p1	NL
MSTRG.75.2.p1	NL
MSTRG.37496.2.p1	NL
MSTRG.13750.3.p1	NL
MSTRG.5319.2.p1	NL
MSTRG.13745.1.p1	NL
MSTRG.1843.1.p1	NL
MSTRG.1935.3.p2	NL
MSTRG.49756.1.p1	NL
MSTRG.51375.1.p1	NL
MSTRG.31818.1.p2	NL
MSTRG.4636.1.p1	NL
MSTRG.46785.6.p1	NL
MSTRG.40911.2.p1	NL
MSTRG.4640.1.p1	NL
MSTRG.22250.1.p1	NL
MSTRG.23055.1.p1	NL
MSTRG.36316.2.p1	NL
MSTRG.4851.1.p1	NL
MSTRG.26643.2.p1	NL
MSTRG.3993.5.p1	NL
MSTRG.43217.1.p1	NL
MSTRG.21754.11.p1	NL
MSTRG.28173.1.p1	NL
MSTRG.5746.1.p1	NL
MSTRG.53341.2.p1	NL
MSTRG.4658.2.p1	NL
MSTRG.36326.1.p1	NL
MSTRG.53946.1.p1	NL
MSTRG.937.1.p1	NL
MSTRG.3993.8.p1	NL
MSTRG.4143.1.p1	NL
MSTRG.47225.2.p1	NL
MSTRG.4083.1.p1	NL
MSTRG.36274.1.p1	NL
MSTRG.37033.1.p1	NL
MSTRG.4979.2.p1	NL
MSTRG.36319.1.p1	NL
MSTRG.36324.4.p1	NL
MSTRG.12557.1.p1	NL
MSTRG.40323.4.p1	NL
MSTRG.43676.1.p1	NL
MSTRG.44227.2.p1	NL
MSTRG.36769.2.p1	NL
MSTRG.4543.1.p1	NL
MSTRG.36296.3.p1	NL
MSTRG.21798.1.p1	NL
MSTRG.43078.2.p1	NL
MSTRG.5627.2.p1	NL
MSTRG.1935.5.p1	NL
MSTRG.53764.1.p1	NL
MSTRG.50613.1.p1	NL
MSTRG.28165.2.p1	NL
MSTRG.40323.3.p1	NL
MSTRG.21518.12.p1	NL
MSTRG.54246.1.p1	NL
MSTRG.46443.1.p1	NL
MSTRG.36324.3.p1	NL
MSTRG.1935.1.p1	NL
MSTRG.53821.1.p1	NL
MSTRG.26812.3.p1	NL
MSTRG.36324.5.p1	NL
MSTRG.36296.4.p1	NL
MSTRG.36321.3.p1	NL
MSTRG.40323.5.p1	NL
MSTRG.26933.1.p1	NL
MSTRG.33661.1.p1	NL
MSTRG.30886.1.p1	NL
MSTRG.36324.1.p1	NL
MSTRG.21518.4.p1	NL
MSTRG.2053.2.p1	NL
MSTRG.40323.1.p1	NL
MSTRG.37102.2.p1	NL
MSTRG.39247.5.p1	NL
MSTRG.53821.3.p1	NL
MSTRG.50571.2.p1	NL
MSTRG.36321.1.p1	NL
MSTRG.40202.1.p1	NL
MSTRG.49655.1.p1	NL
MSTRG.53501.1.p1	NL
MSTRG.8151.1.p1	NL
MSTRG.5066.3.p1	NL
MSTRG.42797.3.p1	NL
MSTRG.43304.2.p1	NL
MSTRG.15026.1.p1	NL
MSTRG.22964.1.p1	NL
MSTRG.21518.3.p1	NL
MSTRG.4483.2.p1	NL
MSTRG.29206.1.p1	NL
MSTRG.53821.4.p1	NL
MSTRG.4636.3.p1	NL
MSTRG.21518.7.p1	NL
MSTRG.5627.4.p1	NL
MSTRG.36296.1.p1	NL
MSTRG.37177.1.p1	NL
MSTRG.18502.1.p1	NL
MSTRG.53776.1.p1	NL
MSTRG.8154.1.p1	NL
MSTRG.21518.9.p1	NL
MSTRG.53341.1.p1	NL
MSTRG.36324.10.p1	NL
MSTRG.36326.2.p1	NL
MSTRG.50151.1.p1	NL
MSTRG.1927.1.p1	NL
MSTRG.36324.11.p1	NL
MSTRG.27333.1.p1	NL
MSTRG.8162.3.p1	NL
MSTRG.47225.1.p1	NL
MSTRG.4012.1.p1	NL
MSTRG.31309.1.p1	NL
MSTRG.8162.18.p1	NL
MSTRG.36319.2.p1	NL
MSTRG.1935.2.p1	NL
MSTRG.22250.2.p1	NL
MSTRG.18511.1.p1	NL
MSTRG.54048.1.p1	NL
MSTRG.38342.1.p1	NL
MSTRG.36316.1.p1	NL
MSTRG.4539.3.p1	NL
MSTRG.43219.1.p1	NL
MSTRG.4279.1.p1	NL
MSTRG.27470.1.p1	NL
MSTRG.36324.9.p1	NL
MSTRG.36316.3.p1	NL
MSTRG.21518.10.p1	NL
MSTRG.54305.1.p1	NL
MSTRG.2053.5.p1	NL
MSTRG.21858.1.p1	NL
MSTRG.37183.1.p1	NL
MSTRG.21518.11.p1	NL
MSTRG.23035.1.p1	NL
MSTRG.54292.1.p1	NL
MSTRG.47225.4.p1	NL
MSTRG.23140.2.p1	NL
MSTRG.4634.2.p1	NL
MSTRG.75.1.p1	NL
MSTRG.54301.1.p1	NL
MSTRG.40911.4.p1	NL
MSTRG.31309.5.p1	NL
MSTRG.53753.1.p1	NL
MSTRG.4739.4.p1	NL
MSTRG.36316.4.p1	NL
MSTRG.33512.1.p1	NL
MSTRG.36315.6.p1	NL
MSTRG.31309.3.p1	NL
MSTRG.1847.1.p1	NL
MSTRG.2053.1.p1	NL
MSTRG.22058.1.p1	NL
MSTRG.37496.1.p1	NL
MSTRG.43307.3.p1	NL
MSTRG.5642.13.p1	OTHER
MSTRG.45453.3.p1	OTHER
MSTRG.45453.1.p1	OTHER
MSTRG.32811.1.p1	OTHER
MSTRG.44718.1.p1	OTHER
MSTRG.5386.1.p1	OTHER
MSTRG.33658.2.p1	OTHER
MSTRG.22090.1.p1	OTHER
MSTRG.5642.12.p1	OTHER
MSTRG.37540.1.p1	OTHER
MSTRG.45453.2.p1	OTHER
MSTRG.22086.1.p1	OTHER
MSTRG.53971.1.p1	OTHER
MSTRG.28481.1.p1	OTHER
MSTRG.33658.4.p1	OTHER
MSTRG.50228.1.p1	OTHER
MSTRG.22090.2.p1	OTHER
MSTRG.33658.3.p1	OTHER
MSTRG.31819.1.p1	OTHER
MSTRG.22155.4.p2	TN
MSTRG.4454.1.p1	TN
MSTRG.3993.9.p1	TN
MSTRG.4266.1.p1	TN
MSTRG.21781.1.p1	TN
MSTRG.40322.2.p1	TN
MSTRG.4576.2.p2	TN
MSTRG.17558.1.p1	TN
MSTRG.22155.3.p2	TN
MSTRG.807.2.p1	TN
MSTRG.22155.7.p2	TN
MSTRG.22155.5.p2	TN
MSTRG.40424.1.p1	TN
MSTRG.8192.3.p1	TN
MSTRG.22155.1.p2	TN
MSTRG.21309.1.p1	TN
MSTRG.4979.1.p1	TN
MSTRG.12784.1.p2	TN
MSTRG.37056.2.p1	TN
MSTRG.21754.4.p1	TN
MSTRG.36621.1.p1	TN
MSTRG.5037.1.p1	TN
MSTRG.31822.2.p1	TN
MSTRG.50555.1.p1	TN
MSTRG.4710.2.p1	TN
MSTRG.12550.1.p1	TN
MSTRG.44227.1.p2	TN
MSTRG.42900.1.p1	TN
MSTRG.33296.1.p1	TN
MSTRG.36617.1.p1	TN
MSTRG.3993.5.p2	TN
MSTRG.3792.1.p2	TN
MSTRG.40365.1.p1	TN
MSTRG.5738.3.p1	TN
MSTRG.1829.3.p2	TN
MSTRG.28838.3.p1	TN
MSTRG.37033.4.p1	TN
MSTRG.34824.1.p1	TN
MSTRG.42431.1.p1	TN
MSTRG.4454.2.p1	TN
MSTRG.22045.1.p1	TN
MSTRG.22155.9.p2	TN
MSTRG.13261.1.p1	TN
MSTRG.42431.3.p1	TN
MSTRG.31310.1.p1	TN
MSTRG.18929.2.p1	TN
MSTRG.22808.2.p2	TN
MSTRG.5034.2.p1	TN
MSTRG.4739.3.p1	TN
MSTRG.46785.8.p1	TN
MSTRG.3800.1.p1	TN
MSTRG.4445.3.p1	TN
MSTRG.34824.4.p1	TN
MSTRG.42431.4.p1	TN
MSTRG.22023.1.p1	TN
MSTRG.289.1.p1	TN
MSTRG.4071.1.p1	TN
MSTRG.22808.4.p1	TN
MSTRG.33656.1.p1	TN
MSTRG.22155.2.p2	TN
MSTRG.36622.1.p1	TN
MSTRG.32817.1.p2	TN
MSTRG.33294.1.p1	TN
MSTRG.4445.1.p1	TN
MSTRG.37056.1.p1	TN
MSTRG.40367.1.p1	TN
MSTRG.4543.1.p2	TN
MSTRG.46538.3.p1	TN
MSTRG.22046.1.p1	TN
MSTRG.1829.1.p2	TN
MSTRG.4166.1.p1	TN
MSTRG.1739.1.p1	TN
MSTRG.4445.2.p1	TN
MSTRG.21995.3.p1	TN
MSTRG.37815.1.p1	TN
MSTRG.40911.1.p1	TN
MSTRG.22155.6.p2	TN
MSTRG.21995.4.p1	TN
MSTRG.26643.1.p1	TN
MSTRG.40322.1.p2	TN
MSTRG.4269.1.p2	TN
MSTRG.2442.1.p1	TN
MSTRG.21898.1.p1	TN
MSTRG.21777.3.p1	TN
MSTRG.1829.4.p2	TN
MSTRG.4450.1.p1	TN
MSTRG.4318.1.p3	TN
MSTRG.42431.2.p1	TN
MSTRG.22808.3.p2	TN
MSTRG.1829.2.p2	TN
MSTRG.5482.1.p1	TN
MSTRG.42900.2.p1	TN
MSTRG.22155.8.p2	TN
MSTRG.32805.1.p1	TN
MSTRG.21785.1.p1	TNL
MSTRG.3919.3.p1	TNL
MSTRG.46268.1.p1	TNL
MSTRG.9380.1.p1	TNL
MSTRG.7554.2.p1	TNL
MSTRG.5416.1.p1	TNL
MSTRG.3957.1.p1	TNL
MSTRG.21754.1.p1	TNL
MSTRG.36544.2.p1	TNL
MSTRG.50482.3.p1	TNL
MSTRG.32416.1.p1	TNL
MSTRG.3792.4.p1	TNL
MSTRG.3790.1.p1	TNL
MSTRG.29327.2.p1	TNL
MSTRG.3965.1.p1	TNL
MSTRG.33130.1.p1	TNL
MSTRG.50571.1.p1	TNL
MSTRG.46962.1.p1	TNL
MSTRG.22023.11.p1	TNL
MSTRG.4632.1.p1	TNL
MSTRG.21754.12.p1	TNL
MSTRG.36772.1.p1	TNL
MSTRG.29183.1.p1	TNL
MSTRG.4454.5.p1	TNL
MSTRG.22801.1.p1	TNL
MSTRG.1215.1.p1	TNL
MSTRG.4143.2.p1	TNL
MSTRG.14607.2.p1	TNL
MSTRG.5661.1.p1	TNL
MSTRG.26933.2.p1	TNL
MSTRG.40354.2.p1	TNL
MSTRG.37535.1.p1	TNL
MSTRG.33661.2.p1	TNL
MSTRG.4957.1.p1	TNL
MSTRG.17572.1.p1	TNL
MSTRG.42797.2.p1	TNL
MSTRG.4201.1.p1	TNL
MSTRG.5531.1.p1	TNL
MSTRG.5528.2.p1	TNL
MSTRG.3967.1.p1	TNL
MSTRG.50482.1.p1	TNL
MSTRG.21754.3.p1	TNL
MSTRG.21930.1.p1	TNL
MSTRG.5070.1.p1	TNL
MSTRG.42174.6.p1	TNL
MSTRG.5178.1.p1	TNL
MSTRG.44232.1.p1	TNL
MSTRG.22023.7.p1	TNL
MSTRG.21995.2.p1	TNL
MSTRG.21925.1.p1	TNL
MSTRG.25014.10.p1	TNL
MSTRG.27453.1.p1	TNL
MSTRG.37536.2.p1	TNL
MSTRG.25014.11.p1	TNL
MSTRG.4636.6.p1	TNL
MSTRG.36616.1.p1	TNL
MSTRG.5245.1.p1	TNL
MSTRG.5066.1.p1	TNL
MSTRG.5528.1.p1	TNL
MSTRG.12541.1.p1	TNL
MSTRG.34824.5.p1	TNL
MSTRG.42431.5.p1	TNL
MSTRG.37539.3.p1	TNL
MSTRG.34824.3.p1	TNL
MSTRG.28838.1.p1	TNL
MSTRG.25014.9.p1	TNL
MSTRG.5507.1.p1	TNL
MSTRG.5203.3.p1	TNL
MSTRG.48829.1.p1	TNL
MSTRG.5060.1.p1	TNL
MSTRG.5501.1.p1	TNL
MSTRG.6547.1.p1	TNL
MSTRG.21872.2.p1	TNL
MSTRG.5241.1.p1	TNL
MSTRG.3993.6.p1	TNL
MSTRG.21870.1.p1	TNL
MSTRG.12550.5.p1	TNL
MSTRG.3993.1.p1	TNL
MSTRG.14994.1.p1	TNL
MSTRG.5430.1.p1	TNL
MSTRG.42797.1.p1	TNL
MSTRG.36004.1.p1	TNL
MSTRG.1735.1.p1	TNL
MSTRG.14610.1.p1	TNL
MSTRG.42174.7.p1	TNL
MSTRG.42174.5.p1	TNL
MSTRG.5203.6.p1	TNL
MSTRG.50482.2.p1	TNL
MSTRG.3792.3.p1	TNL
MSTRG.5528.3.p1	TNL
MSTRG.21309.2.p1	TNL
MSTRG.46348.1.p1	TNL
MSTRG.42174.4.p1	TNL
MSTRG.44733.1.p1	TNL
MSTRG.37538.1.p1	TNL
MSTRG.40354.1.p1	TNL
MSTRG.4085.2.p1	TNL
MSTRG.26812.1.p1	TNL
MSTRG.46961.1.p1	TNL
MSTRG.33130.2.p1	TNL
MSTRG.13267.1.p1	TNL
MSTRG.22023.8.p1	TNL
MSTRG.17986.1.p1	TNL
MSTRG.4067.1.p1	TNL
MSTRG.40332.1.p1	TNL
MSTRG.40354.3.p1	TNL
MSTRG.49680.1.p1	TNL
MSTRG.26933.3.p1	TNL
MSTRG.12550.6.p1	TNL
MSTRG.42174.1.p1	TNL
MSTRG.37196.1.p1	TNL
MSTRG.3919.2.p1	TNL
MSTRG.5210.2.p1	TNL
MSTRG.4634.1.p1	TNL
MSTRG.5075.1.p1	TNL
MSTRG.5180.2.p1	TNL
MSTRG.31293.1.p1	TNL
MSTRG.4296.2.p1	TNL
MSTRG.36544.1.p1	TNL
MSTRG.21754.2.p1	TNL
MSTRG.21872.1.p1	TNL
MSTRG.4405.1.p1	TNL
MSTRG.8192.1.p1	TNL
MSTRG.21754.8.p1	TNL
MSTRG.5426.3.p1	TNL
MSTRG.28838.2.p1	TNL
MSTRG.3993.7.p1	TNL
MSTRG.18929.1.p1	TNL
MSTRG.4296.1.p1	TNL
MSTRG.37539.2.p1	TNL
MSTRG.8190.2.p1	TNL
MSTRG.36627.1.p1	TNL
MSTRG.40911.5.p1	TNL
MSTRG.35994.1.p1	TNL
MSTRG.21777.1.p1	TNL
MSTRG.31309.4.p1	TNL
MSTRG.3919.1.p1	TNL
MSTRG.34824.2.p1	TNL
MSTRG.5162.1.p1	TNL
MSTRG.28883.1.p1	TNL
MSTRG.4316.1.p1	TNL
MSTRG.5162.5.p1	TNL
MSTRG.21716.1.p1	TNL
MSTRG.4445.4.p1	TNL
MSTRG.5660.1.p1	TNL
MSTRG.1725.1.p1	TNL
MSTRG.20886.1.p2	TX
MSTRG.5633.1.p1	TX
MSTRG.53341.2.p2	TX
MSTRG.4080.1.p1	TX
MSTRG.5081.1.p3	TX
MSTRG.29327.1.p3	TX
MSTRG.44733.3.p3	TX
MSTRG.12550.7.p2	TX
MSTRG.19036.1.p1	TX
MSTRG.4855.2.p1	TX
MSTRG.4710.1.p1	TX
MSTRG.4855.4.p1	TX
MSTRG.6253.1.p1	TX
MSTRG.43676.1.p3	TX
MSTRG.4576.1.p4	TX
MSTRG.14612.1.p1	TX
MSTRG.4790.1.p1	TX
MSTRG.4872.3.p1	TX
MSTRG.5367.3.p1	TX
MSTRG.5426.2.p4	TX
MSTRG.37035.6.p1	TX
MSTRG.4087.3.p1	TX
MSTRG.36009.2.p2	TX
MSTRG.4826.2.p2	TX
MSTRG.847.1.p1	TX
MSTRG.43676.2.p2	TX
MSTRG.21121.4.p1	TX
MSTRG.50855.3.p1	TX
MSTRG.4855.1.p1	TX
MSTRG.4078.3.p1	TX
MSTRG.53341.4.p3	TX
MSTRG.5612.1.p1	TX
MSTRG.31259.1.p1	TX
MSTRG.4640.1.p2	TX
MSTRG.21121.3.p1	TX
MSTRG.8192.2.p3	TX
MSTRG.5597.1.p1	TX
MSTRG.44733.2.p2	TX
MSTRG.4143.1.p2	TX
MSTRG.26510.1.p1	TX
MSTRG.1842.1.p1	TX
MSTRG.21121.5.p1	TX
MSTRG.26934.1.p2	TX
MSTRG.4080.2.p1	TX
MSTRG.26812.2.p2	TX
MSTRG.21121.1.p1	TX
MSTRG.48036.1.p1	TX
MSTRG.7554.1.p5	TX
MSTRG.4826.1.p2	TX
MSTRG.5253.1.p1	TX
MSTRG.50482.4.p2	TX
MSTRG.5635.3.p1	TX
MSTRG.4854.1.p1	TX
MSTRG.22835.1.p1	TX
MSTRG.50855.1.p1	TX
MSTRG.42174.2.p2	TX
MSTRG.4877.1.p1	TX
MSTRG.29328.1.p3	TX
MSTRG.4015.1.p5	TX
MSTRG.23717.1.p1	TX
MSTRG.4159.1.p1	TX
MSTRG.5367.2.p1	TX
MSTRG.4872.2.p1	TX
MSTRG.5635.1.p1	TX
MSTRG.40911.4.p2	TX
MSTRG.53341.3.p2	TX
MSTRG.18043.1.p1	TX
MSTRG.46532.1.p1	TX
MSTRG.31822.1.p1	TX
MSTRG.21754.6.p2	TX
MSTRG.33296.2.p2	TX
MSTRG.36009.1.p2	TX
MSTRG.4087.2.p1	TX
MSTRG.22023.6.p1	TX
MSTRG.36544.3.p1	TX
MSTRG.21121.6.p1	TX
MSTRG.4078.5.p2	TX
MSTRG.36643.1.p3	TX
MSTRG.25487.1.p1	TX
MSTRG.4638.1.p1	TX
MSTRG.5635.5.p1	TX
MSTRG.844.1.p1	TX
MSTRG.50548.1.p1	TX
MSTRG.4855.3.p1	TX
MSTRG.4078.1.p1	TX
MSTRG.21777.2.p4	TX
MSTRG.5744.1.p2	TX
MSTRG.4872.4.p1	TX
MSTRG.31822.3.p1	TX
MSTRG.5411.1.p4	TX
MSTRG.36733.2.p7	TX
MSTRG.4872.5.p1	TX
MSTRG.21111.1.p1	TX
MSTRG.32807.1.p4	TX
MSTRG.50855.2.p1	TX
MSTRG.807.1.p3	TX
MSTRG.31715.1.p1	TX
MSTRG.4078.4.p1	TX
MSTRG.21114.1.p1	TX
MSTRG.4872.6.p1	TX
MSTRG.21121.2.p1	TX
MSTRG.6246.1.p1	TX
MSTRG.4087.1.p1	TX
MSTRG.5367.1.p1	TX
MSTRG.4872.1.p1	TX
MSTRG.46785.1.p2	TX
MSTRG.47447.1.p1	TX
MSTRG.5635.2.p1	TX
MSTRG.18016.3.p1	TX
MSTRG.26812.3.p2	TX
MSTRG.5614.1.p1	TX
MSTRG.5635.4.p1	TX
MSTRG.40202.2.p4	TX
MSTRG.5609.1.p1	TX
MSTRG.4080.3.p1	TX
MSTRG.18016.1.p1	TX
MSTRG.37035.5.p1	TX
MSTRG.12557.1.p2	TX
MSTRG.5203.2.p2	TX
MSTRG.4078.2.p1	TX
MSTRG.4061.1.p4	TX
